Organisation des données de recherche
…
meteo_fich <- list.files("donnees", pattern = "hourly",
                         full.names = TRUE)
meteo_fich

## [1] "donnees/eng-hourly-06012018-06302018.csv"
## [2] "donnees/eng-hourly-07012018-07312018.csv"
## [3] "donnees/eng-hourly-08012018-08312018.csv"

Supposons que func soit une fonction avec un seul argument. La fonction map(liste, func) applique la fonction func à chaque élément de liste, c’est-à-dire que chaque élément de liste est utilisé tour à tour comme argument pour func. Les résultats sont placés dans une liste, dans le même ordre que la liste originale.

meteo_liste <- map(meteo_fich, extr_min_max)
meteo_liste

## [[1]]
## # A tibble: 30 x 5
## # Groups:   Year, Month [?]
##     Year Month   Day  Tmin  Tmax
##    <int> <int> <int> <dbl> <dbl>
##  1  2018     6     1   3.5  20.4
##  2  2018     6     2  -0.1  18.9
##  3  2018     6     3   3.8  24.9
##  4  2018     6     4   9.7  14.6
##  5  2018     6     5   3.1  10.8
##  6  2018     6     6  -0.6  19.4
##  7  2018     6     7   8.1  17.2
##  8  2018     6     8   1.3  21.9
##  9  2018     6     9   1.4  19.8
## 10  2018     6    10   2.2  21.5
## # ... with 20 more rows
## 
## [[2]]
## # A tibble: 31 x 5
## # Groups:   Year, Month [?]
##     Year Month   Day  Tmin  Tmax
##    <int> <int> <int> <dbl> <dbl>
##  1  2018     7     1  16.8  30.7
##  2  2018     7     2  18.3  26.3
##  3  2018     7     3  15.5  30.2
##  4  2018     7     4  19.7  31.7
##  5  2018     7     5  18.6  30.9
##  6  2018     7     6  10.2  20.4
##  7  2018     7     7  NA    NA  
##  8  2018     7     8  17.3  29.5
##  9  2018     7     9  16.4  24  
## 10  2018     7    10  10.3  21.6
## # ... with 21 more rows
## 
## [[3]]
## # A tibble: 31 x 5
## # Groups:   Year, Month [?]
##     Year Month   Day  Tmin  Tmax
##    <int> <int> <int> <dbl> <dbl>
##  1  2018     8     1  16.2  25.1
##  2  2018     8     2  12.7  23.4
##  3  2018     8     3  12.7  22.6
##  4  2018     8     4  15    26.4
##  5  2018     8     5  17.9  30.5
##  6  2018     8     6  16.9  26.7
##  7  2018     8     7  13.8  21.9
##  8  2018     8     8  12.3  25.2
##  9  2018     8     9  10.4  21.3
## 10  2018     8    10   8.7  26.1
## # ... with 21 more rows
…
